<svg width="93" height="94" viewBox="0 0 93 94" fill="none" xmlns="http://www.w3.org/2000/svg">
<path d="M91.5 47C91.5 72.1441 71.3377 92.5 46.5 92.5C21.6623 92.5 1.5 72.1441 1.5 47C1.5 21.8559 21.6623 1.5 46.5 1.5C71.3377 1.5 91.5 21.8559 91.5 47Z" stroke="#D93D3D" stroke-width="3"/>
<path d="M34.7674 62.4563L57.6141 32" stroke="#D93D3D" stroke-width="3" stroke-linecap="round"/>
<path d="M34.4145 32.3091L58.2786 62.9474" stroke="#D93D3D" stroke-width="3" stroke-linecap="round"/>
</svg>
