<svg width="34" height="36" viewBox="0 0 34 36" fill="none" xmlns="http://www.w3.org/2000/svg">
<path d="M10.3333 9.89583C11.0236 9.89583 11.5833 10.5394 11.5833 11.3333V13.7292H13.6666C14.357 13.7292 14.9166 14.3728 14.9166 15.1667C14.9166 15.9606 14.357 16.6042 13.6666 16.6042H11.5833V19C11.5833 19.7939 11.0236 20.4375 10.3333 20.4375C9.64292 20.4375 9.08328 19.7939 9.08328 19V16.6042H6.99994C6.30959 16.6042 5.74994 15.9606 5.74994 15.1667C5.74994 14.3728 6.30959 13.7292 6.99994 13.7292H9.08328V11.3333C9.08328 10.5394 9.64292 9.89583 10.3333 9.89583Z" fill="#1B1C25"/>
<path d="M25.3333 18.5208C25.3333 17.4623 24.5871 16.6042 23.6666 16.6042C22.7461 16.6042 21.9999 17.4623 21.9999 18.5208V19C21.9999 20.0585 22.7461 20.9167 23.6666 20.9167C24.5871 20.9167 25.3333 20.0585 25.3333 19V18.5208Z" fill="#1B1C25"/>
<path d="M23.6666 9.41667C24.5871 9.41667 25.3333 10.2748 25.3333 11.3333V11.8125C25.3333 12.871 24.5871 13.7292 23.6666 13.7292C22.7461 13.7292 21.9999 12.871 21.9999 11.8125V11.3333C21.9999 10.2748 22.7461 9.41667 23.6666 9.41667Z" fill="#1B1C25"/>
<path d="M28.6666 15.1667C28.6666 16.2252 27.9204 17.0833 26.9999 17.0833H26.5833C25.6628 17.0833 24.9166 16.2252 24.9166 15.1667C24.9166 14.1081 25.6628 13.25 26.5833 13.25H26.9999C27.9204 13.25 28.6666 14.1081 28.6666 15.1667Z" fill="#1B1C25"/>
<path d="M20.7499 17.0833C21.6704 17.0833 22.4166 16.2252 22.4166 15.1667C22.4166 14.1081 21.6704 13.25 20.7499 13.25H20.3333C19.4128 13.25 18.6666 14.1081 18.6666 15.1667C18.6666 16.2252 19.4128 17.0833 20.3333 17.0833H20.7499Z" fill="#1B1C25"/>
<path fill-rule="evenodd" clip-rule="evenodd" d="M18.2499 1.75C18.2499 0.956091 17.6903 0.3125 16.9999 0.3125C16.3096 0.3125 15.7499 0.956091 15.7499 1.75V4.59984C13.3514 4.63754 10.9539 4.78374 8.5629 5.03844L8.01023 5.09731C4.02406 5.52194 0.954591 9.32863 0.886753 13.9317L0.866599 15.2992C0.787759 20.6487 1.16273 25.9944 1.98618 31.2603C2.39445 33.8711 4.37001 35.7708 6.67669 35.7708H7.0451C9.10403 35.7708 10.9696 34.3755 11.8043 32.211L13.572 27.6277C14.8905 24.209 19.1094 24.209 20.4279 27.6277L22.1956 32.211C23.0303 34.3755 24.8959 35.7708 26.9548 35.7708H27.3232C29.6299 35.7708 31.6054 33.8711 32.0137 31.2603C32.8372 25.9944 33.2121 20.6487 33.1333 15.2991L33.1131 13.9317C33.0453 9.32862 29.9758 5.52194 25.9897 5.09732L25.437 5.03844C23.046 4.78374 20.6485 4.63754 18.2499 4.59984V1.75ZM8.79349 7.90119C14.2528 7.31963 19.7471 7.31963 25.2064 7.90119L25.7591 7.96006C28.4755 8.24943 30.5673 10.8436 30.6135 13.9804L30.6337 15.3479C30.7097 20.5106 30.3479 25.6695 29.5532 30.7514C29.3591 31.9926 28.4199 32.8958 27.3232 32.8958H26.9548C25.8845 32.8958 24.9148 32.1705 24.4809 31.0454L22.7132 26.4621C20.5157 20.7642 13.4842 20.7642 11.2867 26.4621L9.51901 31.0454C9.08509 32.1705 8.11536 32.8958 7.0451 32.8958H6.67669C5.58004 32.8958 4.64081 31.9926 4.44671 30.7514C3.65202 25.6695 3.29015 20.5106 3.36624 15.3479L3.38639 13.9804C3.43262 10.8436 5.52437 8.24943 8.24082 7.96006L8.79349 7.90119Z" fill="#1B1C25"/>
</svg>
