<svg width="40" height="41" viewBox="0 0 40 41" fill="none" xmlns="http://www.w3.org/2000/svg">
<path d="M7.50004 20.4999C9.80123 20.4999 11.6667 18.5878 11.6667 16.2291C11.6667 13.8704 9.80123 11.9583 7.50004 11.9583C5.19885 11.9583 3.33337 13.8704 3.33337 16.2291C3.33337 18.5878 5.19885 20.4999 7.50004 20.4999Z" fill="#1B1C25"/>
<path d="M15 13.6667C17.3012 13.6667 19.1667 11.7545 19.1667 9.39583C19.1667 7.03712 17.3012 5.125 15 5.125C12.6989 5.125 10.8334 7.03712 10.8334 9.39583C10.8334 11.7545 12.6989 13.6667 15 13.6667Z" fill="#1B1C25"/>
<path d="M25 13.6667C27.3012 13.6667 29.1667 11.7545 29.1667 9.39583C29.1667 7.03712 27.3012 5.125 25 5.125C22.6989 5.125 20.8334 7.03712 20.8334 9.39583C20.8334 11.7545 22.6989 13.6667 25 13.6667Z" fill="#1B1C25"/>
<path d="M32.5 20.4999C34.8012 20.4999 36.6667 18.5878 36.6667 16.2291C36.6667 13.8704 34.8012 11.9583 32.5 11.9583C30.1989 11.9583 28.3334 13.8704 28.3334 16.2291C28.3334 18.5878 30.1989 20.4999 32.5 20.4999Z" fill="#1B1C25"/>
<path d="M28.9 25.3858C27.45 23.6433 26.2334 22.1571 24.7667 20.4146C24 19.4921 23.0167 18.5696 21.85 18.1596C21.6667 18.0913 21.4834 18.04 21.3 18.0058C20.8834 17.9375 20.4334 17.9375 20 17.9375C19.5667 17.9375 19.1167 17.9375 18.6834 18.0229C18.5 18.0571 18.3167 18.1083 18.1334 18.1767C16.9667 18.5867 16 19.5092 15.2167 20.4317C13.7667 22.1742 12.55 23.6604 11.0834 25.4029C8.90004 27.6408 6.2167 30.1179 6.7167 33.5858C7.20004 35.3283 8.4167 37.0537 10.6 37.5492C11.8167 37.8054 15.7 36.7975 19.8334 36.7975H20.1334C24.2667 36.7975 28.15 37.7883 29.3667 37.5492C31.55 37.0537 32.7667 35.3112 33.25 33.5858C33.7667 30.1008 31.0834 27.6237 28.9 25.3858V25.3858Z" fill="#1B1C25"/>
</svg>
